Exercise Three - Clutter
…
to_filter <- c("0","1", '2', '3', '4', '5', '8', '15', '16', '17', '20', '21', '24')
filtered <- filter(Absenteeism_at_work, !(Reason_for_absence %in% to_filter))

filtered

## # A tibble: 653 x 21
##       ID Reason_for_abse… Month_of_absence Day_of_the_week Seasons
##    <dbl>            <dbl>            <dbl>           <dbl>   <dbl>
##  1    11               26                7               3       1
##  2     3               23                7               4       1
##  3     7                7                7               5       1
##  4    11               23                7               5       1
##  5     3               23                7               6       1
##  6    10               22                7               6       1
##  7    20               23                7               6       1
##  8    14               19                7               2       1
##  9     1               22                7               2       1
## 10    20               11                7               4       1
## # ... with 643 more rows, and 16 more variables:
## #   Transportation_expense <dbl>, Distance_from_Residence_to_Work <dbl>,
## #   Service_time <dbl>, Age <fct>, `Work_load_Average/day` <dbl>,
## #   Hit_target <dbl>, Disciplinary_failure <dbl>, Education <dbl>,
## #   Son <dbl>, Social_drinker <dbl>, Social_smoker <dbl>, Pet <dbl>,
## #   Weight <dbl>, Height <dbl>, Body_mass_index <dbl>,
## #   Absenteeism_time_in_hours <dbl>
…
